------------------
System Information
------------------
  DxDiag Previously: Crashed in system information (stage 1) & DirectInput (stage 1). Re-running DxDiag with "dontskip" command line parameter or choosing not to bypass information gathering when prompted might result in DxDiag successfully obtaining this information

------------
DxDiag Notes
------------
      Display Tab 1: No problems found.
        Sound Tab 1: No problems found.
          Input Tab: 

---------------
Display Devices
---------------
          Card name: AMD Radeon(TM) R5 Graphics
       Manufacturer: Advanced Micro Devices, Inc.
          Chip type: AMD Radeon Graphics Processor (0x98E4)
           DAC type: Internal DAC(400MHz)
        Device Type: Full Device
         Device Key: Enum\PCI\VEN_1002&DEV_98E4&SUBSYS_39FA17AA&REV_C6
      Device Status: 0180200A [DN_DRIVER_LOADED|DN_STARTED|DN_DISABLEABLE|DN_NT_ENUMERATOR|DN_NT_DRIVER] 
Device Problem Code: No Problem
Driver Problem Code: Unknown
     Display Memory: 4108 MB
   Dedicated Memory: 501 MB
      Shared Memory: 3607 MB
       Current Mode: 1366 x 768 (32 bit) (60Hz)
       Monitor Name: Generic PnP Monitor
      Monitor Model: unknown
         Monitor Id: BOE0698
        Native Mode: 1366 x 768(p) (59.973Hz)
        Output Type: Internal
        Driver Name: C:\WINDOWS\System32\DriverStore\FileRepository\c0310394.inf_amd64_7cb96ec24ef14508\aticfx64.dll,C:\WINDOWS\System32\DriverStore\FileRepository\c0310394.inf_amd64_7cb96ec24ef14508\aticfx64.dll,C:\WINDOWS\System32\DriverStore\FileRepository\c0310394.inf_amd64_7cb96ec24ef14508\aticfx64.dll,C:\WINDOWS\System32\DriverStore\FileRepository\c0310394.inf_amd64_7cb96ec24ef14508\amdxc64.dll
Driver File Version: 21.19.0144.1281 (English)
     Driver Version: 21.19.144.1281
        DDI Version: 12
     Feature Levels: 12_0,11_1,11_0,10_1,10_0,9_3,9_2,9_1
       Driver Model: WDDM 2.1
Graphics Preemption: DMA
 Compute Preemption: DMA
           Miracast: Not Supported by Graphics driver
Hybrid Graphics GPU: Not Supported
     Power P-states: Not Supported
  Driver Attributes: Final Retail
   Driver Date/Size: 12/16/2016 7:00:00 AM, 1571200 bytes
        WHQL Logo'd: Yes
    WHQL Date Stamp: Unknown
  Device Identifier: {D7B71EE2-DBA4-11CF-1B71-6A197AC2D835}
          Vendor ID: 0x1002
          Device ID: 0x98E4
          SubSys ID: 0x39FA17AA
        Revision ID: 0x00C6
 Driver Strong Name: oem3.inf:cb0ae4140cc69b9d:ati2mtag_StoneyDS:21.19.144.1281:pci\ven_1002&dev_98e4&subsys_39fa17aa&rev_c6
     Rank Of Driver: 00D10000
        Video Accel: ModeMPEG2_A ModeMPEG2_C 
        DXVA2 Modes: DXVA2_ModeMPEG2_VLD  DXVA2_ModeMPEG2_IDCT  DXVA2_ModeH264_VLD_NoFGT  DXVA2_ModeHEVC_VLD_Main  DXVA2_ModeH264_VLD_Stereo_Progressive_NoFGT  DXVA2_ModeH264_VLD_Stereo_NoFGT  DXVA2_ModeVC1_VLD  DXVA2_ModeMPEG4pt2_VLD_AdvSimple_NoGMC  DXVA2_ModeHEVC_VLD_Main10  
   Deinterlace Caps: {335AA36E-7884-43A4-9C91-7F87FAF3E37E}: Format(In/Out)=(YUY2,YUY2) Frames(Prev/Fwd/Back)=(0,0,0) Caps=VideoProcess_YUV2RGB VideoProcess_StretchX VideoProcess_StretchY DeinterlaceTech_BOBVerticalStretch 
                     {5A54A0C9-C7EC-4BD9-8EDE-F3C75DC4393B}: Format(In/Out)=(YUY2,YUY2) Frames(Prev/Fwd/Back)=(0,0,0) Caps=VideoProcess_YUV2RGB VideoProcess_StretchX VideoProcess_StretchY 
                     {335AA36E-7884-43A4-9C91-7F87FAF3E37E}: Format(In/Out)=(UYVY,UYVY) Frames(Prev/Fwd/Back)=(0,0,0) Caps=VideoProcess_YUV2RGB VideoProcess_StretchX VideoProcess_StretchY DeinterlaceTech_BOBVerticalStretch 
                     {5A54A0C9-C7EC-4BD9-8EDE-F3C75DC4393B}: Format(In/Out)=(UYVY,UYVY) Frames(Prev/Fwd/Back)=(0,0,0) Caps=VideoProcess_YUV2RGB VideoProcess_StretchX VideoProcess_StretchY 
                     {5A54A0C9-C7EC-4BD9-8EDE-F3C75DC4393B}: Format(In/Out)=(YV12,0x32315659) Frames(Prev/Fwd/Back)=(0,0,0) Caps=
                     {552C0DAD-CCBC-420B-83C8-74943CF9F1A6}: Format(In/Out)=(NV12,0x3231564e) Frames(Prev/Fwd/Back)=(0,0,2) Caps=VideoProcess_YUV2RGB VideoProcess_StretchX VideoProcess_StretchY DeinterlaceTech_PixelAdaptive 
                     {335AA36E-7884-43A4-9C91-7F87FAF3E37E}: Format(In/Out)=(NV12,0x3231564e) Frames(Prev/Fwd/Back)=(0,0,0) Caps=VideoProcess_YUV2RGB VideoProcess_StretchX VideoProcess_StretchY DeinterlaceTech_BOBVerticalStretch 
                     {5A54A0C9-C7EC-4BD9-8EDE-F3C75DC4393B}: Format(In/Out)=(NV12,0x3231564e) Frames(Prev/Fwd/Back)=(0,0,0) Caps=VideoProcess_YUV2RGB VideoProcess_StretchX VideoProcess_StretchY 
                     {5A54A0C9-C7EC-4BD9-8EDE-F3C75DC4393B}: Format(In/Out)=(IMC1,UNKNOWN) Frames(Prev/Fwd/Back)=(0,0,0) Caps=
                     {5A54A0C9-C7EC-4BD9-8EDE-F3C75DC4393B}: Format(In/Out)=(IMC2,UNKNOWN) Frames(Prev/Fwd/Back)=(0,0,0) Caps=
                     {5A54A0C9-C7EC-4BD9-8EDE-F3C75DC4393B}: Format(In/Out)=(IMC3,UNKNOWN) Frames(Prev/Fwd/Back)=(0,0,0) Caps=
                     {5A54A0C9-C7EC-4BD9-8EDE-F3C75DC4393B}: Format(In/Out)=(IMC4,UNKNOWN) Frames(Prev/Fwd/Back)=(0,0,0) Caps=
                     {5A54A0C9-C7EC-4BD9-8EDE-F3C75DC4393B}: Format(In/Out)=(S340,UNKNOWN) Frames(Prev/Fwd/Back)=(0,0,0) Caps=
                     {5A54A0C9-C7EC-4BD9-8EDE-F3C75DC4393B}: Format(In/Out)=(S342,UNKNOWN) Frames(Prev/Fwd/Back)=(0,0,0) Caps=
       D3D9 Overlay: Not Supported
            DXVA-HD: Not Supported
       DDraw Status: Enabled
         D3D Status: Enabled
         AGP Status: Enabled
           MPO Caps: VERTICAL_FLIP,HORIZONTAL_FLIP,STEREO,RGB,YUV,BILINEAR,HIGH_FILTER,STRETCH_YUV,STRETCH_RGB,ROTATION_WITHOUT_INDEPENDENT_FLIP
        MPO Stretch: 16.000X - 0.000X
    MPO Media Hints: rotation, resizing, colorspace Conversion 
        MPO Formats: NV12,420_OPAQUE,YUY2

-------------
Sound Devices
-------------
            Description: Speakers (Realtek High Definition Audio)
 Default Sound Playback: No
 Default Voice Playback: No
            Hardware ID: HDAUDIO\FUNC_01&VEN_10EC&DEV_0230&SUBSYS_17AA3801&REV_1000
        Manufacturer ID: 1
             Product ID: 100
                   Type: WDM
            Driver Name: RTKVHD64.sys
         Driver Version: 6.00.0001.8083 (English)
      Driver Attributes: Final Retail
            WHQL Logo'd: n/a
          Date and Size: 3/7/2017 12:00:00 AM, 5689856 bytes
            Other Files: 
        Driver Provider: Realtek Semiconductor Corp.
         HW Accel Level: Basic
              Cap Flags: 0x0
    Min/Max Sample Rate: 0, 0
Static/Strm HW Mix Bufs: 0, 0
 Static/Strm HW 3D Bufs: 0, 0
              HW Memory: 0
       Voice Management: No
 EAX(tm) 2.0 Listen/Src: No, No
   I3DL2(tm) Listen/Src: No, No
Sensaura(tm) ZoomFX(tm): No

---------------------
Sound Capture Devices
---------------------
            Description: Microphone (Realtek High Definition Audio)
  Default Sound Capture: No
  Default Voice Capture: No
            Driver Name: RTKVHD64.sys
         Driver Version: 6.00.0001.8083 (English)
      Driver Attributes: Final Retail
          Date and Size: 7/3/2017 08:46:21, 5689856 bytes
              Cap Flags: 0x0
           Format Flags: 0x0

---------------------
Video Capture Devices
Number of Devices: 1
---------------------
           FriendlyName: EasyCamera
               Location: Front
           SymbolicLink: \\?\usb#vid_174f&pid_1173&mi_00#7&299e991a&0&0000#{e5323777-f976-4f5b-9b55-b94699c46e44}\global
           Manufacturer: DMAX-AVC
             HardwareID: USB\VID_174F&PID_1173&REV_0121&MI_00,USB\VID_174F&PID_1173&MI_00
             DriverDesc: EasyCamera
         DriverProvider: Realtek
          DriverVersion: 10.0.10586.11211
      DriverDateEnglish: 7/29/2016 00:00:00
    DriverDateLocalized: 7/29/2016 12:00:00 AM
                Service: rtsuvc
                  Class: Image
          DevNodeStatus: 180200A[DN_DRIVER_LOADED|DN_STARTED|DN_DISABLEABLE|DN_NT_ENUMERATOR|DN_NT_DRIVER]
            ContainerId: {00000000-0000-0000-FFFF-FFFFFFFFFFFF}
            ProblemCode: No Problem
  BusReportedDeviceDesc: EasyCamera
                 Parent: USB\VID_174F&PID_1173\200901010001
      DriverProblemDesc: n/a
           UpperFilters: n/a
           LowerFilters: n/a
                  Stack: \Driver\ksthunk,\Driver\rtsuvc,\Driver\ACPI,\Driver\usbccgp
      ContainerCategory: Imaging

-------------------
DirectInput Devices
-------------------
Poll w/ Interrupt: No

-----------
USB Devices
-----------

----------------
Gameport Devices
----------------

------------
PS/2 Devices
------------

------------------
DirectShow Filters
------------------

DirectShow Filters:
WMAudio Decoder DMO,0x00800800,1,1,WMADMOD.DLL,10.00.15063.0000
WMAPro over S/PDIF DMO,0x00600800,1,1,WMADMOD.DLL,10.00.15063.0000
WMSpeech Decoder DMO,0x00600800,1,1,WMSPDMOD.DLL,10.00.15063.0000
MP3 Decoder DMO,0x00600800,1,1,mp3dmod.dll,10.00.15063.0000
Mpeg4s Decoder DMO,0x00800001,1,1,mp4sdecd.dll,10.00.15063.0000
WMV Screen decoder DMO,0x00600800,1,1,wmvsdecd.dll,10.00.15063.0000
WMVideo Decoder DMO,0x00800001,1,1,wmvdecod.dll,10.00.15063.0000
Mpeg43 Decoder DMO,0x00800001,1,1,mp43decd.dll,10.00.15063.0000
Mpeg4 Decoder DMO,0x00800001,1,1,mpg4decd.dll,10.00.15063.0000
DV Muxer,0x00400000,0,0,qdv.dll,10.00.15063.0000
Color Space Converter,0x00400001,1,1,quartz.dll,10.00.15063.0138
WM ASF Reader,0x00400000,0,0,qasf.dll,12.00.15063.0502
AVI Splitter,0x00600000,1,1,quartz.dll,10.00.15063.0138
VGA 16 Color Ditherer,0x00400000,1,1,quartz.dll,10.00.15063.0138
SBE2MediaTypeProfile,0x00200000,0,0,sbe.dll,10.00.15063.0000
Microsoft DTV-DVD Video Decoder,0x005fffff,2,4,msmpeg2vdec.dll,10.00.15063.0000
AC3 Parser Filter,0x00600000,1,1,mpg2splt.ax,10.00.15063.0000
StreamBufferSink,0x00200000,0,0,sbe.dll,10.00.15063.0000
MJPEG Decompressor,0x00600000,1,1,quartz.dll,10.00.15063.0138
MPEG-I Stream Splitter,0x00600000,1,2,quartz.dll,10.00.15063.0138
SAMI (CC) Parser,0x00400000,1,1,quartz.dll,10.00.15063.0138
VBI Codec,0x00600000,1,4,VBICodec.ax,10.00.15063.0000
MPEG-2 Splitter,0x005fffff,1,0,mpg2splt.ax,10.00.15063.0000
Closed Captions Analysis Filter,0x00200000,2,5,cca.dll,10.00.15063.0000
SBE2FileScan,0x00200000,0,0,sbe.dll,10.00.15063.0000
Microsoft MPEG-2 Video Encoder,0x00200000,1,1,msmpeg2enc.dll,10.00.15063.0000
Internal Script Command Renderer,0x00800001,1,0,quartz.dll,10.00.15063.0138
MPEG Audio Decoder,0x03680001,1,1,quartz.dll,10.00.15063.0138
DV Splitter,0x00600000,1,2,qdv.dll,10.00.15063.0000
Video Mixing Renderer 9,0x00200000,1,0,quartz.dll,10.00.15063.0138
Microsoft MPEG-2 Encoder,0x00200000,2,1,msmpeg2enc.dll,10.00.15063.0000
ACM Wrapper,0x00600000,1,1,quartz.dll,10.00.15063.0138
Video Renderer,0x00800001,1,0,quartz.dll,10.00.15063.0138
MPEG-2 Video Stream Analyzer,0x00200000,0,0,sbe.dll,10.00.15063.0000
Line 21 Decoder,0x00600000,1,1,,
Video Port Manager,0x00600000,2,1,quartz.dll,10.00.15063.0138
Video Renderer,0x00400000,1,0,quartz.dll,10.00.15063.0138
VPS Decoder,0x00200000,0,0,WSTPager.ax,10.00.15063.0000
WM ASF Writer,0x00400000,0,0,qasf.dll,12.00.15063.0502
VBI Surface Allocator,0x00600000,1,1,vbisurf.ax,
File writer,0x00200000,1,0,qcap.dll,10.00.15063.0000
DVD Navigator,0x00200000,0,3,qdvd.dll,10.00.15063.0000
Overlay Mixer2,0x00200000,1,1,,
Microsoft MPEG-2 Audio Encoder,0x00200000,1,1,msmpeg2enc.dll,10.00.15063.0000
WST Pager,0x00200000,1,1,WSTPager.ax,10.00.15063.0000
MPEG-2 Demultiplexer,0x00600000,1,1,mpg2splt.ax,10.00.15063.0000
DV Video Decoder,0x00800000,1,1,qdv.dll,10.00.15063.0000
SampleGrabber,0x00200000,1,1,qedit.dll,10.00.15063.0000
Null Renderer,0x00200000,1,0,qedit.dll,10.00.15063.0000
MPEG-2 Sections and Tables,0x005fffff,1,0,Mpeg2Data.ax,10.00.15063.0000
Microsoft AC3 Encoder,0x00200000,1,1,msac3enc.dll,10.00.15063.0000
StreamBufferSource,0x00200000,0,0,sbe.dll,10.00.15063.0000
Smart Tee,0x00200000,1,2,qcap.dll,10.00.15063.0000
Overlay Mixer,0x00200000,0,0,,
AVI Decompressor,0x00600000,1,1,quartz.dll,10.00.15063.0138
AVI/WAV File Source,0x00400000,0,2,quartz.dll,10.00.15063.0138
Wave Parser,0x00400000,1,1,quartz.dll,10.00.15063.0138
MIDI Parser,0x00400000,1,1,quartz.dll,10.00.15063.0138
Multi-file Parser,0x00400000,1,1,quartz.dll,10.00.15063.0138
File stream renderer,0x00400000,1,1,quartz.dll,10.00.15063.0138
Microsoft DTV-DVD Audio Decoder,0x005fffff,1,1,msmpeg2adec.dll,10.00.15063.0000
StreamBufferSink2,0x00200000,0,0,sbe.dll,10.00.15063.0000
AVI Mux,0x00200000,1,0,qcap.dll,10.00.15063.0000
Line 21 Decoder 2,0x00600002,1,1,quartz.dll,10.00.15063.0138
File Source (Async.),0x00400000,0,1,quartz.dll,10.00.15063.0138
File Source (URL),0x00400000,0,1,quartz.dll,10.00.15063.0138
Infinite Pin Tee Filter,0x00200000,1,1,qcap.dll,10.00.15063.0000
Enhanced Video Renderer,0x00200000,1,0,evr.dll,10.00.15063.0000
BDA MPEG2 Transport Information Filter,0x00200000,2,0,psisrndr.ax,10.00.15063.0000
MPEG Video Decoder,0x40000001,1,1,quartz.dll,10.00.15063.0138

WDM Streaming Tee/Splitter Devices:
Tee/Sink-to-Sink Converter,0x00200000,1,1,ksproxy.ax,10.00.15063.0000

Video Compressors:
WMVideo8 Encoder DMO,0x00600800,1,1,wmvxencd.dll,10.00.15063.0000
WMVideo9 Encoder DMO,0x00600800,1,1,wmvencod.dll,10.00.15063.0000
MSScreen 9 encoder DMO,0x00600800,1,1,wmvsencd.dll,10.00.15063.0000
DV Video Encoder,0x00200000,0,0,qdv.dll,10.00.15063.0000
MJPEG Compressor,0x00200000,0,0,quartz.dll,10.00.15063.0138

Audio Compressors:
WM Speech Encoder DMO,0x00600800,1,1,WMSPDMOE.DLL,10.00.15063.0000
WMAudio Encoder DMO,0x00600800,1,1,WMADMOE.DLL,10.00.15063.0000
IMA ADPCM,0x00200000,1,1,quartz.dll,10.00.15063.0138
PCM,0x00200000,1,1,quartz.dll,10.00.15063.0138
Microsoft ADPCM,0x00200000,1,1,quartz.dll,10.00.15063.0138
GSM 6.10,0x00200000,1,1,quartz.dll,10.00.15063.0138
CCITT A-Law,0x00200000,1,1,quartz.dll,10.00.15063.0138
CCITT u-Law,0x00200000,1,1,quartz.dll,10.00.15063.0138
MPEG Layer-3,0x00200000,1,1,quartz.dll,10.00.15063.0138

Audio Capture Sources:
Microphone (Realtek High Definition Audio),0x00200000,0,0,qcap.dll,10.00.15063.0000

PBDA CP Filters:
PBDA DTFilter,0x00600000,1,1,CPFilters.dll,10.00.15063.0000
PBDA ETFilter,0x00200000,0,0,CPFilters.dll,10.00.15063.0000
PBDA PTFilter,0x00200000,0,0,CPFilters.dll,10.00.15063.0000

Midi Renderers:
Default MidiOut Device,0x00800000,1,0,quartz.dll,10.00.15063.0138
Microsoft GS Wavetable Synth,0x00200000,1,0,quartz.dll,10.00.15063.0138

WDM Streaming Capture Devices:
Realtek HD Audio Stereo input,0x00200000,1,1,ksproxy.ax,10.00.15063.0000
Realtek HD Audio Mic input,0x00200000,1,1,ksproxy.ax,10.00.15063.0000
EasyCamera,0x00200000,1,1,ksproxy.ax,10.00.15063.0000

WDM Streaming Rendering Devices:
Realtek HD Audio output,0x00200000,1,1,ksproxy.ax,10.00.15063.0000

BDA Network Providers:
Microsoft ATSC Network Provider,0x00200000,0,1,MSDvbNP.ax,10.00.15063.0000
Microsoft DVBC Network Provider,0x00200000,0,1,MSDvbNP.ax,10.00.15063.0000
Microsoft DVBS Network Provider,0x00200000,0,1,MSDvbNP.ax,10.00.15063.0000
Microsoft DVBT Network Provider,0x00200000,0,1,MSDvbNP.ax,10.00.15063.0000
Microsoft Network Provider,0x00200000,0,1,MSNP.ax,10.00.15063.0000

Video Capture Sources:
EasyCamera,0x00200000,1,1,ksproxy.ax,10.00.15063.0000

Multi-Instance Capable VBI Codecs:
VBI Codec,0x00600000,1,4,VBICodec.ax,10.00.15063.0000

BDA Transport Information Renderers:
BDA MPEG2 Transport Information Filter,0x00600000,2,0,psisrndr.ax,10.00.15063.0000
MPEG-2 Sections and Tables,0x00600000,1,0,Mpeg2Data.ax,10.00.15063.0000

BDA CP/CA Filters:
Decrypt/Tag,0x00600000,1,1,EncDec.dll,10.00.15063.0000
Encrypt/Tag,0x00200000,0,0,EncDec.dll,10.00.15063.0000
PTFilter,0x00200000,0,0,EncDec.dll,10.00.15063.0000
XDS Codec,0x00200000,0,0,EncDec.dll,10.00.15063.0000

WDM Streaming Communication Transforms:
Tee/Sink-to-Sink Converter,0x00200000,1,1,ksproxy.ax,10.00.15063.0000

Audio Renderers:
Speakers (Realtek High Definition Audio),0x00200000,1,0,quartz.dll,10.00.15063.0138
Default DirectSound Device,0x00800000,1,0,quartz.dll,10.00.15063.0138
Default WaveOut Device,0x00200000,1,0,quartz.dll,10.00.15063.0138
DirectSound: Speakers (Realtek High Definition Audio),0x00200000,1,0,quartz.dll,10.00.15063.0138


----------------------------
Preferred DirectShow Filters
----------------------------

[HKEY_LOCAL_MACHINE\Software\Microsoft\DirectShow\Preferred]

<media subtype GUID>, [<filter friendly name>, ]<filter CLSID>

MEDIASUBTYPE_MPEG1Payload, MPEG Video Decoder, CLSID_CMpegVideoCodec
MEDIASUBTYPE_MPEG1Packet, MPEG Video Decoder, CLSID_CMpegVideoCodec
MEDIASUBTYPE_DVD_LPCM_AUDIO, Microsoft DTV-DVD Audio Decoder, CLSID_CMPEG2AudDecoderDS
MEDIASUBTYPE_MPEG2_AUDIO, Microsoft DTV-DVD Audio Decoder, CLSID_CMPEG2AudDecoderDS
MEDIASUBTYPE_MPEG2_VIDEO, Microsoft DTV-DVD Video Decoder, CLSID_CMPEG2VidDecoderDS
{78766964-0000-0010-8000-00AA00389B71}, Mpeg4s Decoder DMO, CLSID_CMpeg4sDecMediaObject
{7634706D-0000-0010-8000-00AA00389B71}, Mpeg4s Decoder DMO, CLSID_CMpeg4sDecMediaObject
MEDIASUBTYPE_mp4s, Mpeg4s Decoder DMO, CLSID_CMpeg4sDecMediaObject
{6C737664-0000-0010-8000-00AA00389B71}, DV Video Decoder, CLSID_DVVideoCodec
{64737664-0000-0010-8000-00AA00389B71}, DV Video Decoder, CLSID_DVVideoCodec
{64697678-0000-0010-8000-00AA00389B71}, Mpeg4s Decoder DMO, CLSID_CMpeg4sDecMediaObject
{64687664-0000-0010-8000-00AA00389B71}, DV Video Decoder, CLSID_DVVideoCodec
{58564944-0000-0010-8000-00AA00389B71}, Mpeg4s Decoder DMO, CLSID_CMpeg4sDecMediaObject
{5634504D-0000-0010-8000-00AA00389B71}, Mpeg4s Decoder DMO, CLSID_CMpeg4sDecMediaObject
MEDIASUBTYPE_MP4S, Mpeg4s Decoder DMO, CLSID_CMpeg4sDecMediaObject
MEDIASUBTYPE_WMVR, WMVideo Decoder DMO, CLSID_CWMVDecMediaObject
MEDIASUBTYPE_WMVP, WMVideo Decoder DMO, CLSID_CWMVDecMediaObject
MEDIASUBTYPE_MJPG, MJPEG Decompressor, CLSID_MjpegDec
{44495658-0000-0010-8000-00AA00389B71}, Mpeg4s Decoder DMO, CLSID_CMpeg4sDecMediaObject
MEDIASUBTYPE_WMVA, WMVideo Decoder DMO, CLSID_CWMVDecMediaObject
MEDIASUBTYPE_mpg4, Mpeg4 Decoder DMO, CLSID_CMpeg4DecMediaObject
MEDIASUBTYPE_MPG4, Mpeg4 Decoder DMO, CLSID_CMpeg4DecMediaObject
MEDIASUBTYPE_h264, Microsoft DTV-DVD Video Decoder, CLSID_CMPEG2VidDecoderDS
MEDIASUBTYPE_H264, Microsoft DTV-DVD Video Decoder, CLSID_CMPEG2VidDecoderDS
MEDIASUBTYPE_WMV3, WMVideo Decoder DMO, CLSID_CWMVDecMediaObject
MEDIASUBTYPE_mp43, Mpeg43 Decoder DMO, CLSID_CMpeg43DecMediaObject
MEDIASUBTYPE_MP43, Mpeg43 Decoder DMO, CLSID_CMpeg43DecMediaObject
MEDIASUBTYPE_m4s2, Mpeg4s Decoder DMO, CLSID_CMpeg4sDecMediaObject
MEDIASUBTYPE_WMV2, WMVideo Decoder DMO, CLSID_CWMVDecMediaObject
MEDIASUBTYPE_MSS2, WMV Screen decoder DMO, CLSID_CMSSCDecMediaObject
MEDIASUBTYPE_M4S2, Mpeg4s Decoder DMO, CLSID_CMpeg4sDecMediaObject
MEDIASUBTYPE_WVP2, WMVideo Decoder DMO, CLSID_CWMVDecMediaObject
MEDIASUBTYPE_mp42, Mpeg4 Decoder DMO, CLSID_CMpeg4DecMediaObject
MEDIASUBTYPE_MP42, Mpeg4 Decoder DMO, CLSID_CMpeg4DecMediaObject
MEDIASUBTYPE_WMV1, WMVideo Decoder DMO, CLSID_CWMVDecMediaObject
MEDIASUBTYPE_MSS1, WMV Screen decoder DMO, CLSID_CMSSCDecMediaObject
MEDIASUBTYPE_WVC1, WMVideo Decoder DMO, CLSID_CWMVDecMediaObject
MEDIASUBTYPE_AVC1, Microsoft DTV-DVD Video Decoder, CLSID_CMPEG2VidDecoderDS
{20637664-0000-0010-8000-00AA00389B71}, DV Video Decoder, CLSID_DVVideoCodec
MEDIASUBTYPE_MPEG_LOAS, Microsoft DTV-DVD Audio Decoder, CLSID_CMPEG2AudDecoderDS
MEDIASUBTYPE_MPEG_ADTS_AAC, Microsoft DTV-DVD Audio Decoder, CLSID_CMPEG2AudDecoderDS
MEDIASUBTYPE_WMAUDIO_LOSSLESS, WMAudio Decoder DMO, CLSID_CWMADecMediaObject
MEDIASUBTYPE_WMAUDIO3, WMAudio Decoder DMO, CLSID_CWMADecMediaObject
WMMEDIASUBTYPE_WMAudioV8, WMAudio Decoder DMO, CLSID_CWMADecMediaObject
MEDIASUBTYPE_MSAUDIO1, WMAudio Decoder DMO, CLSID_CWMADecMediaObject
MEDIASUBTYPE_RAW_AAC1, Microsoft DTV-DVD Audio Decoder, CLSID_CMPEG2AudDecoderDS
WMMEDIASUBTYPE_MP3, MP3 Decoder DMO, CLSID_CMP3DecMediaObject
MEDIASUBTYPE_MPEG1AudioPayload, MPEG Audio Decoder, CLSID_CMpegAudioCodec
WMMEDIASUBTYPE_WMSP2, WMSpeech Decoder DMO, CLSID_CWMSPDecMediaObject
WMMEDIASUBTYPE_WMSP1, WMSpeech Decoder DMO, CLSID_CWMSPDecMediaObject


---------------------------
Media Foundation Transforms
---------------------------

[HKEY_LOCAL_MACHINE\Software\Classes\MediaFoundation\Transforms]

<category>:
  <transform friendly name>, <transform CLSID>, <flags>, [<merit>, ]<file name>, <file version>

Video Decoders:
  AMD D3D11 Hardware MFT Playback Decoder, {17796AEB-0F66-4663-B8FB-99CBEE0224CE}, 0x4, 8, AMDhwDecoder_64.dll, 21.19.0144.1281
  AMD MFT MJPEG Decoder, {687CBC51-25DA-4FFC-A678-1E64943285A7}, 0x4, 8, amf-mft-mjpeg-decoder64.dll, 
  Microsoft MPEG Video Decoder MFT, {2D709E52-123F-49B5-9CBC-9AF5CDE28FB9}, 0x1, msmpeg2vdec.dll, 10.00.15063.0000
  DV Decoder MFT, {404A6DE5-D4D6-4260-9BC7-5A6CBD882432}, 0x1, mfdvdec.dll, 10.00.15063.0000
  Microsoft H265 Video Decoder MFT, {420A51A3-D605-430C-B4FC-45274FA6C562}, 0x1, hevcdecoder.dll, 10.00.15063.0000
  Mpeg4s Decoder MFT, CLSID_CMpeg4sDecMFT, 0x1, mp4sdecd.dll, 10.00.15063.0000
  Microsoft H264 Video Decoder MFT, CLSID_CMSH264DecoderMFT, 0x1, msmpeg2vdec.dll, 10.00.15063.0000
  WMV Screen decoder MFT, CLSID_CMSSCDecMediaObject, 0x1, wmvsdecd.dll, 10.00.15063.0000
  WMVideo Decoder MFT, CLSID_CWMVDecMediaObject, 0x1, wmvdecod.dll, 10.00.15063.0000
  MJPEG Decoder MFT, {CB17E772-E1CC-4633-8450-5617AF577905}, 0x1, mfmjpegdec.dll, 10.00.15063.0138
  Mpeg43 Decoder MFT, CLSID_CMpeg43DecMediaObject, 0x1, mp43decd.dll, 10.00.15063.0000
  Microsoft WebM MF VP8 Decoder Transform, {E3AAF548-C9A4-4C6E-234D-5ADA374B0000}, 0x1, MSVP9DEC.dll, 10.00.15063.0000
  Mpeg4 Decoder MFT, CLSID_CMpeg4DecMediaObject, 0x1, mpg4decd.dll, 10.00.15063.0000
Video Encoders:
  AMDh264Encoder, {ADC9BC80-0F41-46C6-AB75-D693D793597D}, 0x4, 8, AMDh264Enc64.dll, 21.19.0144.1281
  H264 Encoder MFT, {6CA50344-051A-4DED-9779-A43305165E35}, 0x1, mfh264enc.dll, 10.00.15063.0000
  WMVideo8 Encoder MFT, CLSID_CWMVXEncMediaObject, 0x1, wmvxencd.dll, 10.00.15063.0000
  Microsoft MF VPX Encoder Transform, {AEB6C755-2546-4881-82CC-E15AE5EBFF3D}, 0x1, MSVPXENC.dll, 10.00.15063.0296
  H263 Encoder MFT, {BC47FCFE-98A0-4F27-BB07-698AF24F2B38}, 0x1, mfh263enc.dll, 10.00.15063.0000
  WMVideo9 Encoder MFT, CLSID_CWMV9EncMediaObject, 0x1, wmvencod.dll, 10.00.15063.0000
  Microsoft MPEG-2 Video Encoder MFT, {E6335F02-80B7-4DC4-ADFA-DFE7210D20D5}, 0x2, msmpeg2enc.dll, 10.00.15063.0000
  H265 Encoder MFT, {F2F84074-8BCA-40BD-9159-E880F673DD3B}, 0x1, mfh265enc.dll, 10.00.15063.0000
Video Effects:
  Frame Rate Converter, CLSID_CFrameRateConvertDmo, 0x1, mfvdsp.dll, 10.00.15063.0000
  Resizer MFT, CLSID_CResizerDMO, 0x1, vidreszr.dll, 10.00.15063.0000
  VideoStabilization MFT, {51571744-7FE4-4FF2-A498-2DC34FF74F1B}, 0x1, MSVideoDSP.dll, 10.00.15063.0250
  Color Control, CLSID_CColorControlDmo, 0x1, mfvdsp.dll, 10.00.15063.0000
  Color Converter MFT, CLSID_CColorConvertDMO, 0x1, colorcnv.dll, 10.00.15063.0000
Video Processor:
  Microsoft Video Processor MFT, {88753B26-5B24-49BD-B2E7-0C445C78C982}, 0x1, msvproc.dll, 10.00.15063.0608
Audio Decoders:
  Microsoft Dolby Digital Plus Decoder MFT, {177C0AFE-900B-48D4-9E4C-57ADD250B3D4}, 0x1, DolbyDecMFT.dll, 10.00.15063.0502
  MS AMRNB Decoder MFT, {265011AE-5481-4F77-A295-ABB6FFE8D63E}, 0x1, MSAMRNBDecoder.dll, 10.00.15063.0000
  WMAudio Decoder MFT, CLSID_CWMADecMediaObject, 0x1, WMADMOD.DLL, 10.00.15063.0000
  Microsoft AAC Audio Decoder MFT, CLSID_CMSAACDecMFT, 0x1, MSAudDecMFT.dll, 10.00.15063.0447
  A-law Wrapper MFT, {36CB6E0C-78C1-42B2-9943-846262F31786}, 0x1, mfcore.dll, 10.00.15063.0608
  GSM ACM Wrapper MFT, {4A76B469-7B66-4DD4-BA2D-DDF244C766DC}, 0x1, mfcore.dll, 10.00.15063.0608
  WMAPro over S/PDIF MFT, CLSID_CWMAudioSpdTxDMO, 0x1, WMADMOD.DLL, 10.00.15063.0000
  Microsoft Opus Audio Decoder MFT, {63E17C10-2D43-4C42-8FE3-8D8B63E46A6A}, 0x1, MSOpusDecoder.dll, 10.00.15063.0000
  Microsoft FLAC Audio Decoder MFT, {6B0B3E6B-A2C5-4514-8055-AFE8A95242D9}, 0x1, MSFlacDecoder.dll, 10.00.15063.0000
  Microsoft MPEG Audio Decoder MFT, {70707B39-B2CA-4015-ABEA-F8447D22D88B}, 0x1, MSAudDecMFT.dll, 10.00.15063.0447
  WMSpeech Decoder DMO, CLSID_CWMSPDecMediaObject, 0x1, WMSPDMOD.DLL, 10.00.15063.0000
  G711 Wrapper MFT, {92B66080-5E2D-449E-90C4-C41F268E5514}, 0x1, mfcore.dll, 10.00.15063.0608
  IMA ADPCM ACM Wrapper MFT, {A16E1BFF-A80D-48AD-AECD-A35C005685FE}, 0x1, mfcore.dll, 10.00.15063.0608
  MP3 Decoder MFT, CLSID_CMP3DecMediaObject, 0x1, mp3dmod.dll, 10.00.15063.0000
  Microsoft ALAC Audio Decoder MFT, {C0CD7D12-31FC-4BBC-B363-7322EE3E1879}, 0x1, MSAlacDecoder.dll, 10.00.15063.0000
  ADPCM ACM Wrapper MFT, {CA34FE0A-5722-43AD-AF23-05F7650257DD}, 0x1, mfcore.dll, 10.00.15063.0608
  Dolby TrueHD IEC-61937 converter MFT, {CF5EEEDF-0E92-4B3B-A161-BD0FFE545E4B}, 0x1, mfaudiocnv.dll, 10.00.15063.0000
  DTS IEC-61937 converter MFT, {D035E24C-C877-42D7-A795-2A8A339B472F}, 0x1, mfaudiocnv.dll, 10.00.15063.0000
Audio Encoders:
  LPCM DVD-Audio MFT, {068A8476-9229-4CC0-9D49-2FC699DCD30A}, 0x1, mfaudiocnv.dll, 10.00.15063.0000
  MP3 Encoder ACM Wrapper MFT, {11103421-354C-4CCA-A7A3-1AFF9A5B6701}, 0x1, mfcore.dll, 10.00.15063.0608
  Microsoft FLAC Audio Encoder MFT, {128509E9-C44E-45DC-95E9-C255B8F466A6}, 0x1, MSFlacEncoder.dll, 10.00.15063.0000
  WM Speech Encoder DMO, CLSID_CWMSPEncMediaObject2, 0x1, WMSPDMOE.DLL, 10.00.15063.0000
  MS AMRNB Encoder MFT, {2FAE8AFE-04A3-423A-A814-85DB454712B0}, 0x1, MSAMRNBEncoder.dll, 10.00.15063.0000
  Microsoft MPEG-2 Audio Encoder MFT, {46A4DD5C-73F8-4304-94DF-308F760974F4}, 0x1, msmpeg2enc.dll, 10.00.15063.0000
  WMAudio Encoder MFT, CLSID_CWMAEncMediaObject, 0x1, WMADMOE.DLL, 10.00.15063.0000
  Microsoft AAC Audio Encoder MFT, {93AF0C51-2275-45D2-A35B-F2BA21CAED00}, 0x1, mfAACEnc.dll, 10.00.15063.0000
  Microsoft ALAC Audio Encoder MFT, {9AB6A28C-748E-4B6A-BFFF-CC443B8E8FB4}, 0x1, MSAlacEncoder.dll, 10.00.15063.0000
  Microsoft Dolby Digital Encoder MFT, {AC3315C9-F481-45D7-826C-0B406C1F64B8}, 0x1, msac3enc.dll, 10.00.15063.0000
Audio Effects:
  AEC, CLSID_CWMAudioAEC, 0x1, mfwmaaec.dll, 10.00.15063.0000
  Resampler MFT, CLSID_CResamplerMediaObject, 0x1, resampledmo.dll, 10.00.15063.0000
Multiplexers:
  Microsoft MPEG2 Multiplexer MFT, {AB300F71-01AB-46D2-AB6C-64906CB03258}, 0x2, mfmpeg2srcsnk.dll, 10.00.15063.0000
Others:
  Microsoft H264 Video Remux (MPEG2TSToMP4) MFT, {05A47EBB-8BF0-4CBF-AD2F-3B71D75866F5}, 0x1, msmpeg2vdec.dll, 10.00.15063.0000


--------------------------------------------
Media Foundation Enabled Hardware Categories
--------------------------------------------

[HKEY_LOCAL_MACHINE\Software\Microsoft\Windows Media Foundation\HardwareMFT]

EnableDecoders = 1


-------------------------------------
Media Foundation Byte Stream Handlers
-------------------------------------

[HKEY_LOCAL_MACHINE\Software\Microsoft\Windows Media Foundation\ByteStreamHandlers]
[HKEY_LOCAL_MACHINE\Software\Classes\MediaFoundation\MediaSources\Preferred]

<file ext. or MIME type>, <handler CLSID>, <brief description>[, Preferred]

.3g2, {271C3902-6095-4C45-A22F-20091816EE9E}, MPEG4 Byte Stream Handler, Preferred
.3gp, {271C3902-6095-4C45-A22F-20091816EE9E}, MPEG4 Byte Stream Handler, Preferred
.3gp2, {271C3902-6095-4C45-A22F-20091816EE9E}, MPEG4 Byte Stream Handler, Preferred
.3gpp, {271C3902-6095-4C45-A22F-20091816EE9E}, MPEG4 Byte Stream Handler, Preferred
.aac, {926F41F7-003E-4382-9E84-9E953BE10562}, ADTS Byte Stream Handler, Preferred
.ac3, {46031BA1-083F-47D9-8369-23C92BDAB2FF}, AC-3 Byte Stream Handler, Preferred
.adt, {926F41F7-003E-4382-9E84-9E953BE10562}, ADTS Byte Stream Handler, Preferred
.adts, {926F41F7-003E-4382-9E84-9E953BE10562}, ADTS Byte Stream Handler, Preferred
.am?, {EFE6208A-0A2C-49FA-8A01-3768B559B6DA}, MF AMRNB Media Source ByteStreamHandler
.amr, {EFE6208A-0A2C-49FA-8A01-3768B559B6DA}, MF AMRNB Media Source ByteStreamHandler, Preferred
.asf, {41457294-644C-4298-A28A-BD69F2C0CF3B}, ASF Byte Stream Handler, Preferred
.avi, {7AFA253E-F823-42F6-A5D9-714BDE467412}, AVI Byte Stream Handler, Preferred
.dvr-ms, {65964407-A5D8-4060-85B0-1CCD63F768E2}, dvr-ms Byte Stream Handler, Preferred
.dvr-ms, {A8721937-E2FB-4D7A-A9EE-4EB08C890B6E}, MF SBE Source ByteStreamHandler
.ec3, {46031BA1-083F-47D9-8369-23C92BDAB2FF}, AC-3 Byte Stream Handler, Preferred
.flac, {0E41CFB8-0506-40F4-A516-77CC23642D91}, MF FLAC Media Source ByteStreamHandler, Preferred
.m2t, {40871C59-AB40-471F-8DC3-1F259D862479}, MPEG2 Byte Stream Handler, Preferred
.m2ts, {40871C59-AB40-471F-8DC3-1F259D862479}, MPEG2 Byte Stream Handler, Preferred
.m4a, {271C3902-6095-4C45-A22F-20091816EE9E}, MPEG4 Byte Stream Handler, Preferred
.m4v, {271C3902-6095-4C45-A22F-20091816EE9E}, MPEG4 Byte Stream Handler, Preferred
.mk3d, {1F9A2C18-D89E-463E-B4F4-BB90152ACC64}, MKV Byte Stream Handler, Preferred
.mka, {1F9A2C18-D89E-463E-B4F4-BB90152ACC64}, MKV Byte Stream Handler, Preferred
.mks, {1F9A2C18-D89E-463E-B4F4-BB90152ACC64}, MKV Byte Stream Handler, Preferred
.mkv, {1F9A2C18-D89E-463E-B4F4-BB90152ACC64}, MKV Byte Stream Handler, Preferred
.mod, {40871C59-AB40-471F-8DC3-1F259D862479}, MPEG2 Byte Stream Handler, Preferred
.mov, {271C3902-6095-4C45-A22F-20091816EE9E}, MPEG4 Byte Stream Handler, Preferred
.mp2v, {40871C59-AB40-471F-8DC3-1F259D862479}, MPEG2 Byte Stream Handler, Preferred
.mp3, {A82E50BA-8E92-41EB-9DF2-433F50EC2993}, MP3 Byte Stream Handler, Preferred
.mp4, {271C3902-6095-4C45-A22F-20091816EE9E}, MPEG4 Byte Stream Handler, Preferred
.mp4v, {271C3902-6095-4C45-A22F-20091816EE9E}, MPEG4 Byte Stream Handler, Preferred
.mpa, {A82E50BA-8E92-41EB-9DF2-433F50EC2993}, MP3 Byte Stream Handler, Preferred
.mpeg, {40871C59-AB40-471F-8DC3-1F259D862479}, MPEG2 Byte Stream Handler, Preferred
.mpg, {40871C59-AB40-471F-8DC3-1F259D862479}, MPEG2 Byte Stream Handler, Preferred
.mts, {40871C59-AB40-471F-8DC3-1F259D862479}, MPEG2 Byte Stream Handler, Preferred
.nsc, {B084785C-DDE0-4D30-8CA8-05A373E185BE}, NSC Byte Stream Handler, Preferred
.sami, {7A56C4CB-D678-4188-85A8-BA2EF68FA10D}, SAMI Byte Stream Handler, Preferred
.smi, {7A56C4CB-D678-4188-85A8-BA2EF68FA10D}, SAMI Byte Stream Handler, Preferred
.tod, {40871C59-AB40-471F-8DC3-1F259D862479}, MPEG2 Byte Stream Handler, Preferred
.ts, {40871C59-AB40-471F-8DC3-1F259D862479}, MPEG2 Byte Stream Handler, Preferred
.tts, {40871C59-AB40-471F-8DC3-1F259D862479}, MPEG2 Byte Stream Handler, Preferred
.uvu, {271C3902-6095-4C45-A22F-20091816EE9E}, MPEG4 Byte Stream Handler, Preferred
.vob, {40871C59-AB40-471F-8DC3-1F259D862479}, MPEG2 Byte Stream Handler, Preferred
.wav, {42C9B9F5-16FC-47EF-AF22-DA05F7C842E3}, WAV Byte Stream Handler, Preferred
.wm, {41457294-644C-4298-A28A-BD69F2C0CF3B}, ASF Byte Stream Handler, Preferred
.wma, {41457294-644C-4298-A28A-BD69F2C0CF3B}, ASF Byte Stream Handler, Preferred
.wmv, {41457294-644C-4298-A28A-BD69F2C0CF3B}, ASF Byte Stream Handler, Preferred
.wtv, {65964407-A5D8-4060-85B0-1CCD63F768E2}, WTV Byte Stream Handler, Preferred
audio/3gpp, {271C3902-6095-4C45-A22F-20091816EE9E}, MPEG4 Byte Stream Handler, Preferred
audio/3gpp2, {271C3902-6095-4C45-A22F-20091816EE9E}, MPEG4 Byte Stream Handler, Preferred
audio/aac, {926F41F7-003E-4382-9E84-9E953BE10562}, ADTS Byte Stream Handler, Preferred
audio/aacp, {926F41F7-003E-4382-9E84-9E953BE10562}, ADTS Byte Stream Handler, Preferred
audio/eac3, {46031BA1-083F-47D9-8369-23C92BDAB2FF}, AC-3 Byte Stream Handler, Preferred
audio/L16, {3FFB3B8C-EB99-472B-8902-E1C1B05F07CF}, LPCM Byte Stream Handler, Preferred
audio/mp3, {A82E50BA-8E92-41EB-9DF2-433F50EC2993}, MP3 Byte Stream Handler, Preferred
audio/mp4, {271C3902-6095-4C45-A22F-20091816EE9E}, MPEG4 Byte Stream Handler, Preferred
audio/MP4A-LATM, {271C3902-6095-4C45-A22F-20091816EE9E}, MPEG4 Byte Stream Handler, Preferred
audio/mpa, {A82E50BA-8E92-41EB-9DF2-433F50EC2993}, MP3 Byte Stream Handler, Preferred
audio/mpeg, {A82E50BA-8E92-41EB-9DF2-433F50EC2993}, MP3 Byte Stream Handler, Preferred
audio/mpeg3, {A82E50BA-8E92-41EB-9DF2-433F50EC2993}, MP3 Byte Stream Handler, Preferred
audio/vnd.dlna.adts, {926F41F7-003E-4382-9E84-9E953BE10562}, ADTS Byte Stream Handler, Preferred
audio/vnd.dolby.dd-raw, {46031BA1-083F-47D9-8369-23C92BDAB2FF}, AC-3 Byte Stream Handler, Preferred
audio/wav, {42C9B9F5-16FC-47EF-AF22-DA05F7C842E3}, WAV Byte Stream Handler, Preferred
audio/x-aac, {926F41F7-003E-4382-9E84-9E953BE10562}, ADTS Byte Stream Handler, Preferred
audio/x-m4a, {271C3902-6095-4C45-A22F-20091816EE9E}, MPEG4 Byte Stream Handler, Preferred
audio/x-matroska, {1F9A2C18-D89E-463E-B4F4-BB90152ACC64}, MKV Byte Stream Handler, Preferred
audio/x-mp3, {A82E50BA-8E92-41EB-9DF2-433F50EC2993}, MP3 Byte Stream Handler, Preferred
audio/x-mpeg, {A82E50BA-8E92-41EB-9DF2-433F50EC2993}, MP3 Byte Stream Handler, Preferred
audio/x-ms-wma, {41457294-644C-4298-A28A-BD69F2C0CF3B}, ASF Byte Stream Handler, Preferred
audio/x-wav, {42C9B9F5-16FC-47EF-AF22-DA05F7C842E3}, WAV Byte Stream Handler, Preferred
video/3gpp, {271C3902-6095-4C45-A22F-20091816EE9E}, MPEG4 Byte Stream Handler, Preferred
video/3gpp2, {271C3902-6095-4C45-A22F-20091816EE9E}, MPEG4 Byte Stream Handler, Preferred
video/avi, {7AFA253E-F823-42F6-A5D9-714BDE467412}, AVI Byte Stream Handler, Preferred
video/mp4, {271C3902-6095-4C45-A22F-20091816EE9E}, MPEG4 Byte Stream Handler, Preferred
video/mpeg, {40871C59-AB40-471F-8DC3-1F259D862479}, MPEG2 Byte Stream Handler, Preferred
video/msvideo, {7AFA253E-F823-42F6-A5D9-714BDE467412}, AVI Byte Stream Handler, Preferred
video/vnd.dece.mp4, {271C3902-6095-4C45-A22F-20091816EE9E}, MPEG4 Byte Stream Handler, Preferred
video/vnd.dlna.mpeg-tts, {40871C59-AB40-471F-8DC3-1F259D862479}, MPEG2 Byte Stream Handler, Preferred
video/x-m4v, {271C3902-6095-4C45-A22F-20091816EE9E}, MPEG4 Byte Stream Handler, Preferred
video/x-matroska, {1F9A2C18-D89E-463E-B4F4-BB90152ACC64}, MKV Byte Stream Handler, Preferred
video/x-ms-asf, {41457294-644C-4298-A28A-BD69F2C0CF3B}, ASF Byte Stream Handler, Preferred
video/x-ms-wm, {41457294-644C-4298-A28A-BD69F2C0CF3B}, ASF Byte Stream Handler, Preferred
video/x-ms-wmv, {41457294-644C-4298-A28A-BD69F2C0CF3B}, ASF Byte Stream Handler, Preferred
video/x-msvideo, {7AFA253E-F823-42F6-A5D9-714BDE467412}, AVI Byte Stream Handler, Preferred


--------------------------------
Media Foundation Scheme Handlers
--------------------------------

[HKEY_LOCAL_MACHINE\Software\Microsoft\Windows Media Foundation\SchemeHandlers]
[HKEY_LOCAL_MACHINE\Software\Classes\MediaFoundation\MediaSources\Preferred]

<URL type>, <handler CLSID>, <brief description>[, Preferred]

file:, {477EC299-1421-4BDD-971F-7CCB933F21AD}, File Scheme Handler, Preferred
http:, {44CB442B-9DA9-49DF-B3FD-023777B16E50}, Http Scheme Handler
http:, {9EC4B4F9-3029-45AD-947B-344DE2A249E2}, Urlmon Scheme Handler
http:, {E9F4EBAB-D97B-463E-A2B1-C54EE3F9414D}, Net Scheme Handler, Preferred
httpd:, {44CB442B-9DA9-49DF-B3FD-023777B16E50}, Http Scheme Handler, Preferred
httpnd:, {2EEEED04-0908-4CDB-AF8F-AC5B768A34C9}, Drm Scheme Handler, Preferred
https:, {37A61C8B-7F8E-4D08-B12B-248D73E9AB4F}, Secure Http Scheme Handler, Preferred
httpsd:, {37A61C8B-7F8E-4D08-B12B-248D73E9AB4F}, Secure Http Scheme Handler, Preferred
httpt:, {E9F4EBAB-D97B-463E-A2B1-C54EE3F9414D}, Net Scheme Handler, Preferred
httpu:, {E9F4EBAB-D97B-463E-A2B1-C54EE3F9414D}, Net Scheme Handler, Preferred
mcast:, {E9F4EBAB-D97B-463E-A2B1-C54EE3F9414D}, Net Scheme Handler, Preferred
mcrecv:, {FA6D33D4-9405-4BA5-9983-12604AC8E77A}, Miracast Sink Scheme Handler, Preferred
mms:, {E9F4EBAB-D97B-463E-A2B1-C54EE3F9414D}, Net Scheme Handler, Preferred
ms-appdata:, {CFC81939-3886-4ACF-9692-DA58037AE716}, MsAppData Scheme Handler, Preferred
ms-appx-web:, {8DB0224B-3D65-4F6F-8E12-BEB4B78B8974}, MsAppxWeb Scheme Handler, Preferred
ms-appx:, {8DB0224B-3D65-4F6F-8E12-BEB4B78B8974}, MsAppx Scheme Handler, Preferred
ms-winsoundevent:, {F79A6BF9-7415-4CF3-AE10-4559509ABC3C}, Sound Event Scheme Handler, Preferred
rtsp:, {E9F4EBAB-D97B-463E-A2B1-C54EE3F9414D}, Net Scheme Handler, Preferred
rtspt:, {E9F4EBAB-D97B-463E-A2B1-C54EE3F9414D}, Net Scheme Handler, Preferred
rtspu:, {E9F4EBAB-D97B-463E-A2B1-C54EE3F9414D}, Net Scheme Handler, Preferred
sdp:, {E9F4EBAB-D97B-463E-A2B1-C54EE3F9414D}, Net Scheme Handler, Preferred


-------------------------------------
Preferred Media Foundation Transforms
-------------------------------------

[HKEY_LOCAL_MACHINE\Software\Classes\MediaFoundation\Transforms\Preferred]

<media subtype GUID>, [<transform friendly name>, ]<transform CLSID>

{EB27CEC4-163E-4CA3-8B74-8E25F91B517E}, Dolby TrueHD IEC-61937 converter MFT, {CF5EEEDF-0E92-4B3B-A161-BD0FFE545E4B}
{E06D802C-DB46-11CF-B4D1-00805F6CBBEA}, Microsoft Dolby Digital Plus Decoder MFT, {177C0AFE-900B-48D4-9E4C-57ADD250B3D4}
MFVideoFormat_MPEG2, Microsoft MPEG Video Decoder MFT, {2D709E52-123F-49B5-9CBC-9AF5CDE28FB9}
MEDIASUBTYPE_DOLBY_DDPLUS, Microsoft Dolby Digital Plus Decoder MFT, {177C0AFE-900B-48D4-9E4C-57ADD250B3D4}
{A2E58EB7-0FA9-48BB-A40C-FA0E156D0645}, DTS IEC-61937 converter MFT, {D035E24C-C877-42D7-A795-2A8A339B472F}
{7634706D-0000-0010-8000-00AA00389B71}, Mpeg4s Decoder MFT, CLSID_CMpeg4sDecMFT
{73616D72-767A-494D-B478-F29D25DC9037}, MS AMRNB Decoder MFT, {265011AE-5481-4F77-A295-ABB6FFE8D63E}
MEDIASUBTYPE_mp4s, Mpeg4s Decoder MFT, CLSID_CMpeg4sDecMFT
MFVideoFormat_DVSL, DV Decoder MFT, {404A6DE5-D4D6-4260-9BC7-5A6CBD882432}
MFVideoFormat_DVSD, DV Decoder MFT, {404A6DE5-D4D6-4260-9BC7-5A6CBD882432}
MFVideoFormat_DVHD, DV Decoder MFT, {404A6DE5-D4D6-4260-9BC7-5A6CBD882432}
MFVideoFormat_MP4V, Mpeg4s Decoder MFT, CLSID_CMpeg4sDecMFT
{53564548-0000-0010-8000-00AA00389B71}, Microsoft H265 Video Decoder MFT, {420A51A3-D605-430C-B4FC-45274FA6C562}
MFVideoFormat_MP4S, Mpeg4s Decoder MFT, CLSID_CMpeg4sDecMFT
{53314356-0000-0010-8000-00AA00389B71}, WMVideo Decoder MFT, CLSID_CWMVDecMediaObject
MEDIASUBTYPE_WMVR, WMVideo Decoder MFT, CLSID_CWMVDecMediaObject
MEDIASUBTYPE_WMVP, WMVideo Decoder MFT, CLSID_CWMVDecMediaObject
MFVideoFormat_MJPG, MJPEG Decoder MFT, {CB17E772-E1CC-4633-8450-5617AF577905}
{43564548-0000-0010-8000-00AA00389B71}, Microsoft H265 Video Decoder MFT, {420A51A3-D605-430C-B4FC-45274FA6C562}
MEDIASUBTYPE_WMVA, WMVideo Decoder MFT, CLSID_CWMVDecMediaObject
{3F40F4F0-5622-4FF8-B6D8-A17A584BEE5E}, Microsoft H264 Video Decoder MFT, CLSID_CMSH264DecoderMFT
MEDIASUBTYPE_mpg4, Mpeg4 Decoder MFT, CLSID_CMpeg4DecMediaObject
MEDIASUBTYPE_MPG4, Mpeg4 Decoder MFT, CLSID_CMpeg4DecMediaObject
MFVideoFormat_H264, Microsoft H264 Video Decoder MFT, CLSID_CMSH264DecoderMFT
MFVideoFormat_WMV3, WMVideo Decoder MFT, CLSID_CWMVDecMediaObject
{33363248-0000-0010-8000-00AA00389B71}, Mpeg4s Decoder MFT, CLSID_CMpeg4sDecMFT
MEDIASUBTYPE_mp43, Mpeg43 Decoder MFT, CLSID_CMpeg43DecMediaObject
MFVideoFormat_MP43, Mpeg43 Decoder MFT, CLSID_CMpeg43DecMediaObject
MEDIASUBTYPE_m4s2, Mpeg4s Decoder MFT, CLSID_CMpeg4sDecMFT
MFVideoFormat_WMV2, WMVideo Decoder MFT, CLSID_CWMVDecMediaObject
MFVideoFormat_MSS2, WMV Screen decoder MFT, CLSID_CMSSCDecMediaObject
MFVideoFormat_M4S2, Mpeg4s Decoder MFT, CLSID_CMpeg4sDecMFT
MEDIASUBTYPE_WVP2, WMVideo Decoder MFT, CLSID_CWMVDecMediaObject
MEDIASUBTYPE_mp42, Mpeg4 Decoder MFT, CLSID_CMpeg4DecMediaObject
MEDIASUBTYPE_MP42, Mpeg4 Decoder MFT, CLSID_CMpeg4DecMediaObject
MFVideoFormat_WMV1, WMVideo Decoder MFT, CLSID_CWMVDecMediaObject
MFVideoFormat_MSS1, WMV Screen decoder MFT, CLSID_CMSSCDecMediaObject
MFVideoFormat_MPG1, Microsoft MPEG Video Decoder MFT, {2D709E52-123F-49B5-9CBC-9AF5CDE28FB9}
MFVideoFormat_WVC1, WMVideo Decoder MFT, CLSID_CWMVDecMediaObject
{30395056-0000-0010-8000-00AA00389B71}, Microsoft WebM MF VP8 Decoder Transform, {E3AAF548-C9A4-4C6E-234D-5ADA374B0000}
{30385056-0000-0010-8000-00AA00389B71}, Microsoft WebM MF VP8 Decoder Transform, {E3AAF548-C9A4-4C6E-234D-5ADA374B0000}
MFVideoFormat_DVC, DV Decoder MFT, {404A6DE5-D4D6-4260-9BC7-5A6CBD882432}
{0000F1AC-0000-0010-8000-00AA00389B71}, Microsoft FLAC Audio Decoder MFT, {6B0B3E6B-A2C5-4514-8055-AFE8A95242D9}
{00007361-0000-0010-8000-00AA00389B71}, MS AMRNB Decoder MFT, {265011AE-5481-4F77-A295-ABB6FFE8D63E}
{0000704F-0000-0010-8000-00AA00389B71}, Microsoft Opus Audio Decoder MFT, {63E17C10-2D43-4C42-8FE3-8D8B63E46A6A}
{00006C61-0000-0010-8000-00AA00389B71}, Microsoft ALAC Audio Decoder MFT, {C0CD7D12-31FC-4BBC-B363-7322EE3E1879}
{00002001-0000-0010-8000-00AA00389B71}, DTS IEC-61937 converter MFT, {D035E24C-C877-42D7-A795-2A8A339B472F}
{00002000-0000-0010-8000-00AA00389B71}, Microsoft Dolby Digital Plus Decoder MFT, {177C0AFE-900B-48D4-9E4C-57ADD250B3D4}
MFAudioFormat_AAC, Microsoft AAC Audio Decoder MFT, CLSID_CMSAACDecMFT
MFAudioFormat_ADTS, Microsoft AAC Audio Decoder MFT, CLSID_CMSAACDecMFT
MFAudioFormat_WMAudio_Lossless, WMAudio Decoder MFT, CLSID_CWMADecMediaObject
MFAudioFormat_WMAudioV9, WMAudio Decoder MFT, CLSID_CWMADecMediaObject
MFAudioFormat_WMAudioV8, WMAudio Decoder MFT, CLSID_CWMADecMediaObject
MEDIASUBTYPE_MSAUDIO1, WMAudio Decoder MFT, CLSID_CWMADecMediaObject
MEDIASUBTYPE_RAW_AAC1, Microsoft AAC Audio Decoder MFT, CLSID_CMSAACDecMFT
MFAudioFormat_MP3, MP3 Decoder MFT, CLSID_CMP3DecMediaObject
MFAudioFormat_MPEG, Microsoft MPEG Audio Decoder MFT, {70707B39-B2CA-4015-ABEA-F8447D22D88B}
{00000031-0000-0010-8000-00AA00389B71}, GSM ACM Wrapper MFT, {4A76B469-7B66-4DD4-BA2D-DDF244C766DC}
{00000011-0000-0010-8000-00AA00389B71}, IMA ADPCM ACM Wrapper MFT, {A16E1BFF-A80D-48AD-AECD-A35C005685FE}
WMMEDIASUBTYPE_WMSP2, WMSpeech Decoder DMO, CLSID_CWMSPDecMediaObject
MFAudioFormat_MSP1, WMSpeech Decoder DMO, CLSID_CWMSPDecMediaObject
KSDATAFORMAT_SUBTYPE_MULAW, G711 Wrapper MFT, {92B66080-5E2D-449E-90C4-C41F268E5514}
{00000006-0000-0010-8000-00AA00389B71}, A-law Wrapper MFT, {36CB6E0C-78C1-42B2-9943-846262F31786}
KSDATAFORMAT_SUBTYPE_ADPCM, ADPCM ACM Wrapper MFT, {CA34FE0A-5722-43AD-AF23-05F7650257DD}


-------------------------------------
Disabled Media Foundation Transforms
-------------------------------------

[HKEY_LOCAL_MACHINE\Software\Classes\MediaFoundation\Transforms\DoNotUse]

<transform CLSID>



------------------------
Disabled Media Sources
------------------------

[HKEY_LOCAL_MACHINE\Software\Classes\MediaFoundation\MediaSources\DoNotUse]

<media source CLSID>


---------------
EVR Power Information
---------------
Current Setting: {16260968-C914-4AA1-8736-B7A6F3C5AE9B} (Power)
  Quality Flags: 2576
    Enabled:
    Force throttling
    Allow half deinterlace
    Allow scaling
    Decode Power Usage: 100
  Balanced Flags: 1424
    Enabled:
    Force throttling
    Allow batching
    Force half deinterlace
    Force scaling
    Decode Power Usage: 50
  PowerFlags: 1424
    Enabled:
    Force throttling
    Allow batching
    Force half deinterlace
    Force scaling
    Decode Power Usage: 0

---------------
Diagnostics
---------------

Windows Error Reporting:
+++ WER0 +++:
Fault bucket 129569041661, type 5
Event Name: RADAR_PRE_LEAK_WOW64
Response: Not available
Cab Id: 0

Problem signature:
P1: Spotify.exe
P2: 1.0.64.399
P3: 10.0.15063.2.0.0
P4: 
P5: 
P6: 
P7: 
P8: 
P9: 
P10: 


+++ WER1 +++:
Fault bucket 120673362969, type 4
Event Name: APPCRASH
Response: Not available
Cab Id: 0

Problem signature:
P1: RadeonSettings.exe
P2: 10.1.1.1648
P3: 58548741
P4: Qt5Core.dll
P5: 5.5.0.0
P6: 558c6b3a
P7: c0000005
P8: 00000000001ca39e
P9: 
P10: 


+++ WER2 +++:
Fault bucket , type 0
Event Name: APPCRASH
Response: Not available
Cab Id: 0

Problem signature:
P1: RadeonSettings.exe
P2: 10.1.1.1648
P3: 58548741
P4: Qt5Core.dll
P5: 5.5.0.0
P6: 558c6b3a
P7: c0000005
P8: 00000000001ca39e
P9: 
P10: 


+++ WER3 +++:
Fault bucket 120673362969, type 4
Event Name: APPCRASH
Response: Not available
Cab Id: 0

Problem signature:
P1: RadeonSettings.exe
P2: 10.1.1.1648
P3: 58548741
P4: Qt5Core.dll
P5: 5.5.0.0
P6: 558c6b3a
P7: c0000005
P8: 00000000001ca39e
P9: 
P10: 


+++ WER4 +++:
Fault bucket 128043279622, type 5
Event Name: WindowsUpdateFailure3
Response: Not available
Cab Id: 0

Problem signature:
P1: 10.0.15063.608
P2: 8024001e
P3: 47B919FC-80F9-4C28-92CC-2066B4853898
P4: Install
P5: 200
P6: 0
P7: 8024000b
P8: UpdateOrchestrator
P9: {9482F4B4-E343-43B6-B170-9A65BC822C77}
P10: 0


+++ WER5 +++:
Fault bucket 120673362969, type 4
Event Name: APPCRASH
Response: Not available
Cab Id: 0

Problem signature:
P1: RadeonSettings.exe
P2: 10.1.1.1648
P3: 58548741
P4: Qt5Core.dll
P5: 5.5.0.0
P6: 558c6b3a
P7: c0000005
P8: 00000000001ca39e
P9: 
P10: 


+++ WER6 +++:
Fault bucket 73043273733, type 1
Event Name: APPCRASH
Response: Not available
Cab Id: 0

Problem signature:
P1: setup.tmp
P2: 51.1052.0.0
P3: 506a75b5
P4: botva2.dll_unloaded
P5: 0.9.7.151
P6: 2a425e19
P7: c000041d
P8: 00005514
P9: 
P10: 


+++ WER7 +++:
Fault bucket 81635134371, type 5
Event Name: BEX
Response: Not available
Cab Id: 0

Problem signature:
P1: setup.tmp
P2: 51.1052.0.0
P3: 506a75b5
P4: botva2.dll_unloaded
P5: 0.9.7.151
P6: 2a425e19
P7: 00005514
P8: c0000005
P9: 00000008
P10: 


+++ WER8 +++:
Fault bucket 129567789582, type 5
Event Name: RADAR_PRE_LEAK_64
Response: Not available
Cab Id: 0

Problem signature:
P1: chrome.exe
P2: 61.0.3163.100
P3: 10.0.15063.2.0.0
P4: 
P5: 
P6: 
P7: 
P8: 
P9: 
P10: 


+++ WER9 +++:
Fault bucket 129520676133, type 5
Event Name: RADAR_PRE_LEAK_64
Response: Not available
Cab Id: 0

Problem signature:
P1: node.exe
P2: 6.11.2.0
P3: 10.0.15063.2.0.0
P4: 
P5: 
P6: 
P7: 
P8: 
P9: 
P10: 


